ps3
…
Also add in the total number of flights in the data set for each week. 

Sort the resulting table in descending order of the number of ridiculously late flights and store it in a variable called table5. The table should have three columns, week, n, and n_ridiculously_late.

In[10]:

### BEGIN SOLUTION
table5 = group_by(flights4, week) %>% mutate(n=n()) %>% filter(!is.na(arr_delay)) %>%
    filter(arr_delay > 10 * mean(pmax(arr_delay, 0), na.rm=T)) %>% 
    summarize(n_ridiculously_late=n()) %>% 
    arrange(desc(n_ridiculously_late))
print(table5)
### END SOLUTION

# A tibble: 53 x 2
    week n_ridiculously_late
   <int>               <int>
 1    40                 186
 2    36                 183
 3    13                 173
 4    18                 162
 5    38                 161
 6    39                 150
 7    34                 142
 8    35                 130
 9    46                 130
10    37                 129
# ... with 43 more rows
…
