ps4
…
Problem 6
Your data from table 4 should have one row per day per carrier. In order to study covariation between carriers, we need to reshape this data so that each carrier occupies a column, and there is one observation per day. We will study this sort of transformation soon. For now the command has been provided for you:

In[8]:

table4_wide = table4 %>% spread(key=carrier, value=med_dep_delay) %>% print

# A tibble: 365 x 9
# Groups:   year, month, day [365]
    year month   day    AA     B6    DL     EV    MQ    UA
 * <int> <int> <int> <dbl>  <dbl> <dbl>  <dbl> <dbl> <dbl>
 1  2013     1     1 -2.00  0.500 -3.50  10.0  -2.00  2.00
 2  2013     1     2  0    -1.00  -2.00  35.0  -2.50  3.00
 3  2013     1     3  0     1.50  -2.00   0    -4.00  2.00
 4  2013     1     4  0     3.00  -4.00   3.00 -5.00  1.00
 5  2013     1     5 -2.00  1.00  -3.00 - 2.50 -4.00  1.00
 6  2013     1     6 -3.00  4.00  -3.00   3.00 -4.00  2.00
 7  2013     1     7 -2.00 -2.00  -3.00 - 1.00 -5.00  1.00
 8  2013     1     8 -3.00 -1.00  -3.00 - 2.00 -6.00 -1.00
 9  2013     1     9 -4.00 -2.00  -4.00 - 5.00 -6.00 -2.00
10  2013     1    10 -4.00 -3.00  -4.00 - 4.00 -6.00 -2.00
# ... with 355 more rows
…
Your answer here.

Football data
The next few questions use a new data set. The file cfb.RData contains a table called cfb with information on 5,116 college football games played since 2011. (More information about this data can be found here.)

In[10]:

load('cfb.RData')
print(cfb)

# A tibble: 5,116 x 50
    year  game count conf_ week  winni winni winni winni winn winn winn
   <int> <int> <int> <chr>  <chr> <chr>  <chr>  <chr>   <int> <chr> <chr> <dbl>
 1  2011     1     1 Y      1     FIU    Sun B H          41 F     Y     13.0 
 2  2011     2     1 N      1     Wisco Big 10 H          51 F     N     35.0 
 3  2011     3     1 N      1     Missi SEC    A          59 F     Y     30.5 
 4  2011     4     1 N      1     Syrac Big E H          36 F     Y      6.00
 5  2011     5     1 N      1     Bowli MAC    A          32 U     Y      6.00
 6  2011     6     1 N      1     Kentu SEC    N          14 F     N     17.0 
 7  2011     7     1 N      1     Baylor Big 12 H          50 U     Y      4.00
 8  2011     8     1 N      1     Ohio  Big 10 H          42 F     Y     31.5 
 9  2011     9     1 N      1     Misso Big 12 H          17 F     N     19.5 
10  2011    10     1 N      1     Auburn SEC    H          42 F     N     24.0 
# ... with 5,106 more rows, and 38 more variables: winning_o_u <chr>,
#   winning_passes <int>, winning_pass_yards <int>, winning_yppa <dbl>,
#   winning_rushes <int>, winning_rush_yards <int>, winning_ypra <dbl>,
#   winning_plays <int>, winning_total_yards <int>, winning_ypp <dbl>,
#   winning_to <int>, winning_pen_yards <int>, winning_top <int>,
#   field_25 <chr>, losing <chr>, losing_conference <chr>, losing_h_a_n <chr>,
#   losing_points <int>, losing_f_u <chr>, losing_cover <chr>,
#   losing_spread <dbl>, losing_o_u <chr>, losing_passes <int>,
#   losing_pass_yards <int>, losing_yppa <dbl>, losing_rush_attempts <int>,
…
