Lecture11
…
    date

Lecture 11: relational data II

Filtering joins
Filtering joins allow use to filter rows on one table based on their presence or absence in another table. We've already seen some examples of this on the problem sets:

In[2]:

top6 = count(flights, carrier) %>% top_n(6)
flights_top6 = filter(flights, carrier %in% top6$carrier) %>% print

Selecting by n

# A tibble: 274,709 x 19
    year month   day dep_t sched dep_d arr_ sched arr_d carr flig tail
   <int> <int> <int>  <int>  <int>  <dbl> <int>  <int>  <dbl> <chr> <int> <chr>
 1  2013     1     1    517    515   2.00   830    819  11.0  UA     1545 N142
 2  2013     1     1    533    529   4.00   850    830  20.0  UA     1714 N242
 3  2013     1     1    542    540   2.00   923    850  33.0  AA     1141 N619
 4  2013     1     1    544    545  -1.00  1004   1022 -18.0  B6      725 N804
 5  2013     1     1    554    600  -6.00   812    837 -25.0  DL      461 N668
 6  2013     1     1    554    558  -4.00   740    728  12.0  UA     1696 N394
 7  2013     1     1    555    600  -5.00   913    854  19.0  B6      507 N516
 8  2013     1     1    557    600  -3.00   709    723 -14.0  EV     5708 N829
 9  2013     1     1    557    600  -3.00   838    846 - 8.00 B6       79 N593
10  2013     1     1    558    600  -2.00   753    745   8.00 AA      301 N3AL
# ... with 274,699 more rows, and 7 more variables: origin <chr>, dest <chr>,
#   air_time <dbl>, distance <dbl>, hour <dbl>, minute <dbl>, time_hour <dttm>
…
One option would be to construct a new string variable which we could then match using the same technique:

In[4]:

top6_days_ymd = unite(top6_days, ymd, year:day, sep="-") %>% .$ymd
flights_ymd = unite(flights, ymd, year:day, sep="-")
filter(flights_ymd, ymd %in% top6_days_ymd) %>% print

# A tibble: 7,038 x 17
   ymd    dep_t sche dep_de arr_ sche arr_d carr flig tail orig dest 
   <chr>   <int> <int>   <dbl> <int> <int>  <dbl> <chr> <int> <chr> <chr> <chr>
 1 2013-     28  1930  298      129  2049  280   EV     5769 N833 LGA   IAD  
 2 2013-    505   500    5.00   703   651   12.0 US     1895 N198 EWR   CLT  
 3 2013-    514   515 -  1.00   743   808 - 25.0 UA     1096 N668 EWR   IAH  
 4 2013-    535   540 -  5.00   907   850   17.0 AA     2243 N5CK JFK   MIA  
 5 2013-    540   545 -  5.00   815   835 - 20.0 UA     1014 N372 LGA   IAH  
 6 2013-    551   600 -  9.00   920   854   26.0 B6      605 N589 EWR   FLL  
 7 2013-    551   600 -  9.00   918   849   29.0 B6      353 N655 JFK   PBI  
 8 2013-    554   600 -  6.00   719   719    0   EV     5747 N820 LGA   IAD  
 9 2013-    554   600 -  6.00   707   717 - 10.0 EV     5716 N832 JFK   IAD  
10 2013-    554   600 -  6.00   907   846   21.0 B6      583 N507 JFK   MCO  
# ... with 7,028 more rows, and 5 more variables: air_time <dbl>,
#   distance <dbl>, hour <dbl>, minute <dbl>, time_hour <dttm>
…
semi_join() takes the same key= options as the other join commands.

In[5]:

semi_join(flights, top6_days) %>% print

Joining, by = c("year", "month", "day")

# A tibble: 7,038 x 19
    year month   day dep_t sched dep_de arr_ sche arr_d carr flig tail
   <int> <int> <int>  <int>  <int>   <dbl> <int> <int>  <dbl> <chr> <int> <chr>
 1  2013    11    27     28   1930  298      129  2049  280   EV     5769 N833
 2  2013    11    27    505    500    5.00   703   651   12.0 US     1895 N198
 3  2013    11    27    514    515 -  1.00   743   808 - 25.0 UA     1096 N668
 4  2013    11    27    535    540 -  5.00   907   850   17.0 AA     2243 N5CK
 5  2013    11    27    540    545 -  5.00   815   835 - 20.0 UA     1014 N372
 6  2013    11    27    551    600 -  9.00   920   854   26.0 B6      605 N589
 7  2013    11    27    551    600 -  9.00   918   849   29.0 B6      353 N655
 8  2013    11    27    554    600 -  6.00   719   719    0   EV     5747 N820
 9  2013    11    27    554    600 -  6.00   707   717 - 10.0 EV     5716 N832
10  2013    11    27    554    600 -  6.00   907   846   21.0 B6      583 N507
# ... with 7,028 more rows, and 7 more variables: origin <chr>, dest <chr>,
#   air_time <dbl>, distance <dbl>, hour <dbl>, minute <dbl>, time_hour <dttm>
…
Anti-joins are useful for finding mismatches in joins. Yesterday we saw that some entries in flights have tailnums that do not exist in the planes table. To find out more about these flights we could use an anti-join to select only those rows:

In[6]:

missing_planes = anti_join(flights, planes, by="tailnum") %>% filter(!is.na(tailnum)) %>% print

# A tibble: 50,094 x 19
    year month   day dep_t sched dep_de arr_ sche arr_d carr flig tail
   <int> <int> <int>  <int>  <int>   <dbl> <int> <int>  <dbl> <chr> <int> <chr>
 1  2013     1     1    558    600  - 2.00   753   745   8.00 AA      301 N3AL
 2  2013     1     1    559    600  - 1.00   941   910  31.0  AA      707 N3DU
 3  2013     1     1    600    600    0      837   825  12.0  MQ     4650 N542
 4  2013     1     1    602    605  - 3.00   821   805  16.0  MQ     4401 N730
 5  2013     1     1    608    600    8.00   807   735  32.0  MQ     3768 N9EA
 6  2013     1     1    611    600   11.0    945   931  14.0  UA      303 N532
 7  2013     1     1    623    610   13.0    920   915   5.00 AA     1837 N3EM
 8  2013     1     1    624    630  - 6.00   840   830  10.0  MQ     4599 N518
 9  2013     1     1    628    630  - 2.00  1137  1140 - 3.00 AA      413 N3BA
10  2013     1     1    629    630  - 1.00   824   810  14.0  AA      303 N3CY
# ... with 50,084 more rows, and 7 more variables: origin <chr>, dest <chr>,
#   air_time <dbl>, distance <dbl>, hour <dbl>, minute <dbl>, time_hour <dttm>

Do we see any pattern in this table that could explain the missing tail numbers?

In[7]:

print(missing_planes %>% sample_n(100), width=Inf)

# A tibble: 100 x 19
    year month   day dep_time sched_dep_time dep_delay arr_time sched_arr_time
   <int> <int> <int>    <int>          <int>     <dbl>    <int>          <int>
 1  2013    12     7     1551           1515     36.0      1723           1705
 2  2013     2    16      915            920    - 5.00     1207           1245
 3  2013     4    29      858            900    - 2.00     1143           1203
 4  2013     8    27     1932           1930      2.00     2238           2250
 5  2013    11    13     1504           1510    - 6.00     2019           2020
 6  2013     8    24      943            950    - 7.00     1201           1205
 7  2013     9    10     1421           1425    - 4.00     1629           1650
 8  2013     5    31      733            740    - 7.00     1025           1040
 9  2013     5    19     1846           1800     46.0      1959           1950
10  2013     1    23     1041           1050    - 9.00     1229           1250
   arr_delay carrier flight tailnum origin dest  air_time distance  hour minute
       <dbl> <chr>    <int> <chr>   <chr>  <chr>    <dbl>    <dbl> <dbl>  <dbl>
 1     18.0  MQ        3231 N639MQ  JFK    PIT       74.0      340 15.0    15.0
 2    -38.0  AA         721 N539AA  LGA    DFW      199       1389  9.00   20.0
 3    -20.0  UA        1665 N76153  EWR    LAX      317       2454  9.00    0  
 4    -12.0  AA         269 N3AHAA  JFK    SEA      322       2422 19.0    30.0
 5    - 1.00 AA          95 N5FMAA  JFK    SJU      198       1598 15.0    10.0
 6    - 4.00 MQ        3644 N537MQ  LGA    ATL      102        762  9.00   50.0
 7    -21.0  MQ        3669 N534MQ  LGA    ATL      104        762 14.0    25.0
 8    -15.0  AA         715 N504AA  LGA    DFW      201       1389  7.00   40.0
 9      9.00 AA         353 N483AA  LGA    ORD      109        733 18.0     0  
10    -21.0  MQ        4589 N3AEMQ  LGA    DTW       88.0      502 10.0    50.0
   time_hour          
   <dttm>             
 1 2013-12-07 15:00:00
 2 2013-02-16 09:00:00
 3 2013-04-29 09:00:00
 4 2013-08-27 19:00:00
 5 2013-11-13 15:00:00
 6 2013-08-24 09:00:00
 7 2013-09-10 14:00:00
 8 2013-05-31 07:00:00
 9 2013-05-19 18:00:00
10 2013-01-23 10:00:00
# ... with 90 more rows
…
