Lecture06
…
Visualizing distributions

Typical and Unusual Values

Missing Values

Visualizing distributions
Recall that a categorical variable is one that can only take one of a (small) finite number of values. For example, in the diamonds data set, color is a categorical variable.

In[2]:

print(diamonds)

# A tibble: 53,940 x 10
   carat cut       color clarity depth table price     x     y     z
   <dbl> <ord>     <ord> <ord>   <dbl> <dbl> <int> <dbl> <dbl> <dbl>
 1 0.230 Ideal     E     SI2      61.5  55.0   326  3.95  3.98  2.43
 2 0.210 Premium   E     SI1      59.8  61.0   326  3.89  3.84  2.31
 3 0.230 Good      E     VS1      56.9  65.0   327  4.05  4.07  2.31
 4 0.290 Premium   I     VS2      62.4  58.0   334  4.20  4.23  2.63
 5 0.310 Good      J     SI2      63.3  58.0   335  4.34  4.35  2.75
 6 0.240 Very Good J     VVS2     62.8  57.0   336  3.94  3.96  2.48
 7 0.240 Very Good I     VVS1     62.3  57.0   336  3.95  3.98  2.47
 8 0.260 Very Good H     SI1      61.9  55.0   337  4.07  4.11  2.53
 9 0.220 Fair      E     VS2      65.1  61.0   337  3.87  3.78  2.49
10 0.230 Very Good H     VS1      59.4  61.0   338  4.00  4.05  2.39
# ... with 53,930 more rows
…
We will again reproduce this plot by hand using the tools we developed earlier. The cut_width(v, k) function can be used to count how many observations in v fall into buckets of width k. In the preceding plot we chose a binwidth=5 so that will be our value of k.

In[9]:

flights_nona %>% filter(dep_delay < 60) %>%
    count(cw=cut_width(dep_delay, 5)) %>% print %>% ggplot(aes(x=cw, y=n)) + geom_col() +
    theme(axis.text.x = element_text(angle = 45, hjust = 1))

# A tibble: 21 x 2
   cw                 n
   <fctr>         <int>
 1 [-47.5,-42.5]      1
 2 (-37.5,-32.5]      1
 3 (-32.5,-27.5]      2
 4 (-27.5,-22.5]     14
 5 (-22.5,-17.5]    160
 6 (-17.5,-12.5]   2079
 7 (-12.5,-7.5]   29878
 8 (-7.5,-2.5]   111111
 9 (-2.5,2.5]     71126
10 (2.5,7.5]      22013
# ... with 11 more rows
…
It really appears that the 1,500 USD price tag is being avoided!!!

In[32]:

arrange(diamonds, price) %>% filter(price > 1452) %>% print

# A tibble: 33,938 x 10
   carat cut       color clarity depth table price     x     y     z
   <dbl> <ord>     <ord> <ord>   <dbl> <dbl> <int> <dbl> <dbl> <dbl>
 1 0.580 Very Good E     SI1      59.6  57.0  1453  5.41  5.42  3.23
 2 0.460 Ideal     G     VVS1     60.7  57.0  1453  4.98  5.03  3.04
 3 0.540 Ideal     H     VS2      61.6  55.0  1453  5.23  5.25  3.23
 4 0.540 Ideal     H     VS2      61.5  55.0  1453  5.25  5.28  3.24
 5 0.540 Ideal     I     VS1      63.1  55.0  1453  5.18  5.22  3.27
 6 0.500 Very Good D     SI1      61.6  56.0  1454  5.09  5.11  3.14
 7 0.520 Ideal     I     VVS1     60.1  56.0  1454  5.24  5.27  3.16
 8 0.540 Ideal     H     VS1      61.2  55.0  1454  5.25  5.31  3.23
 9 0.510 Premium   G     VS2      61.2  60.0  1546  5.17  5.12  3.15
10 0.510 Ideal     G     VS2      62.9  54.0  1546  5.12  5.08  3.21
# ... with 33,928 more rows
…
What's going on near 3? Let us investigate...

In[35]:

filter(diamonds, carat > 3) %>% arrange(carat) %>% print

# A tibble: 32 x 10
   carat cut     color clarity depth table price     x     y     z
   <dbl> <ord>   <ord> <ord>   <dbl> <dbl> <int> <dbl> <dbl> <dbl>
 1  3.01 Premium I     I1       62.7  58.0  8040  9.10  8.97  5.67
 2  3.01 Premium F     I1       62.2  56.0  9925  9.24  9.13  5.73
 3  3.01 Fair    H     I1       56.1  62.0 10761  9.54  9.38  5.31
 4  3.01 Premium G     SI2      59.8  58.0 14220  9.44  9.37  5.62
 5  3.01 Ideal   J     SI2      61.7  58.0 16037  9.25  9.20  5.69
 6  3.01 Ideal   J     I1       65.4  60.0 16538  8.99  8.93  5.86
 7  3.01 Premium I     SI2      60.2  59.0 18242  9.36  9.31  5.62
 8  3.01 Fair    I     SI2      65.8  56.0 18242  8.99  8.94  5.90
 9  3.01 Fair    I     SI2      65.8  56.0 18242  8.99  8.94  5.90
10  3.01 Good    I     SI2      63.9  60.0 18242  9.06  9.01  5.77
# ... with 22 more rows
…
