Lecture04
…
Adding New Variables
The dplyr/tidyverse package offers the mutate() and transmute() commands to add new variables to data tibbles. Let us zoom in on a few variables of interest.

In[2]:

my_flights = select(flights, year:day, dep_time, arr_time, air_time, origin, dest) %>% print

# A tibble: 336,776 x 8
    year month   day dep_time arr_time air_time origin dest 
   <int> <int> <int>    <int>    <int>    <dbl> <chr>  <chr>
 1  2013     1     1      517      830    227   EWR    IAH  
 2  2013     1     1      533      850    227   LGA    IAH  
 3  2013     1     1      542      923    160   JFK    MIA  
 4  2013     1     1      544     1004    183   JFK    BQN  
 5  2013     1     1      554      812    116   LGA    ATL  
 6  2013     1     1      554      740    150   EWR    ORD  
 7  2013     1     1      555      913    158   EWR    FLL  
 8  2013     1     1      557      709     53.0 LGA    IAD  
 9  2013     1     1      557      838    140   JFK    MCO  
10  2013     1     1      558      753    138   LGA    ORD  
# ... with 336,766 more rows

New variables can be added using the mutate() function. We already have an air_time variable. Let us compute the total time for the flight by subtracting the time of departure dep_time from time of arrival arr_time.

We notice something odd though. When we subtract 5h 17m from 8h 30m we should get 3h 13m, i.e. 193 minutes. But instead we get 313 minutes below.

In[3]:

mutate(my_flights, total_time = arr_time - dep_time) %>% print

# A tibble: 336,776 x 9
    year month   day dep_time arr_time air_time origin dest  total_time
   <int> <int> <int>    <int>    <int>    <dbl> <chr>  <chr>      <int>
 1  2013     1     1      517      830    227   EWR    IAH          313
 2  2013     1     1      533      850    227   LGA    IAH          317
 3  2013     1     1      542      923    160   JFK    MIA          381
 4  2013     1     1      544     1004    183   JFK    BQN          460
 5  2013     1     1      554      812    116   LGA    ATL          258
 6  2013     1     1      554      740    150   EWR    ORD          186
 7  2013     1     1      555      913    158   EWR    FLL          358
 8  2013     1     1      557      709     53.0 LGA    IAD          152
 9  2013     1     1      557      838    140   JFK    MCO          281
10  2013     1     1      558      753    138   LGA    ORD          195
# ... with 336,766 more rows
…
In[17]:

ntile(x, 4) # rough ranks based on using just 4 buckets

 [1]  1  2  2  3  1  4  4  3 NA  1

Let us now create two new variables obtained from arr_time and dep_time by convering them into minutes since midnight.

In[18]:

print(my_flights_new <- mutate(my_flights, new_arr = hourmin2min(arr_time), new_dep = hourmin2min(dep_time)))

# A tibble: 336,776 x 10
    year month   day dep_time arr_time air_time origin dest  new_arr new_dep
   <int> <int> <int>    <int>    <int>    <dbl> <chr>  <chr>   <dbl>   <dbl>
 1  2013     1     1      517      830    227   EWR    IAH       510     317
 2  2013     1     1      533      850    227   LGA    IAH       530     333
 3  2013     1     1      542      923    160   JFK    MIA       563     342
 4  2013     1     1      544     1004    183   JFK    BQN       604     344
 5  2013     1     1      554      812    116   LGA    ATL       492     354
 6  2013     1     1      554      740    150   EWR    ORD       460     354
 7  2013     1     1      555      913    158   EWR    FLL       553     355
 8  2013     1     1      557      709     53.0 LGA    IAD       429     357
 9  2013     1     1      557      838    140   JFK    MCO       518     357
10  2013     1     1      558      753    138   LGA    ORD       473     358
# ... with 336,766 more rows

Now we can subtract the departure time new_dep from the arrival time new_arr to get a new variable total_time.

In[19]:

print(my_flights_total <- mutate(my_flights_new, total_time = new_arr - new_dep))

# A tibble: 336,776 x 11
    year month   day dep_time arr_time air_time origin dest  new_a new_ tota
   <int> <int> <int>    <int>    <int>    <dbl> <chr>  <chr>  <dbl> <dbl> <dbl>
 1  2013     1     1      517      830    227   EWR    IAH      510   317 193  
 2  2013     1     1      533      850    227   LGA    IAH      530   333 197  
 3  2013     1     1      542      923    160   JFK    MIA      563   342 221  
 4  2013     1     1      544     1004    183   JFK    BQN      604   344 260  
 5  2013     1     1      554      812    116   LGA    ATL      492   354 138  
 6  2013     1     1      554      740    150   EWR    ORD      460   354 106  
 7  2013     1     1      555      913    158   EWR    FLL      553   355 198  
 8  2013     1     1      557      709     53.0 LGA    IAD      429   357  72.0
 9  2013     1     1      557      838    140   JFK    MCO      518   357 161  
10  2013     1     1      558      753    138   LGA    ORD      473   358 115  
# ... with 336,766 more rows

In[20]:

summary(my_flights_total$total_time)

   Min. 1st Qu.  Median    Mean 3rd Qu.    Max.    NA's 
  -1401      91     133      91     172     690    8713 

How is it that the total time is less that the time in air for some flights? In some cases there may be a time zone issue, or simply errors in the data.

In[21]:

print(filter(my_flights_total, total_time < air_time))

# A tibble: 137,267 x 11
    year month   day dep_time arr_time air_time origin dest  new_a new_ tota
   <int> <int> <int>    <int>    <int>    <dbl> <chr>  <chr>  <dbl> <dbl> <dbl>
 1  2013     1     1      517      830      227 EWR    IAH      510   317   193
 2  2013     1     1      533      850      227 LGA    IAH      530   333   197
 3  2013     1     1      554      740      150 EWR    ORD      460   354   106
 4  2013     1     1      558      753      138 LGA    ORD      473   358   115
 5  2013     1     1      558      924      345 JFK    LAX      564   358   206
 6  2013     1     1      558      923      361 EWR    SFO      563   358   205
 7  2013     1     1      559      941      257 LGA    DFW      581   359   222
 8  2013     1     1      559      854      337 EWR    LAS      534   359   175
 9  2013     1     1      602      812      170 LGA    MSP      492   362   130
10  2013     1     1      608      807      139 EWR    ORD      487   368   119
# ... with 137,257 more rows

In[22]:

discrepancy = transmute(my_flights_total, discrepancy=total_time - air_time) %>% print

# A tibble: 336,776 x 1
   discrepancy
         <dbl>
 1       -34.0
 2       -30.0
 3        61.0
 4        77.0
 5        22.0
 6       -44.0
 7        40.0
 8        19.0
 9        21.0
10       -23.0
# ... with 336,766 more rows
…
We also have some negative values for total time for flight that departed late in the day and arrived early morning next day.

In[24]:

print(filter(my_flights_total, total_time < 0))

# A tibble: 10,633 x 11
    year month   day dep_time arr_time air_time origin dest  new_a new_ tota
   <int> <int> <int>    <int>    <int>    <dbl> <chr>  <chr>  <dbl> <dbl> <dbl>
 1  2013     1     1     1929        3      192 EWR    BQN     3.00  1169 -1166
 2  2013     1     1     1939       29       NA JFK    DFW    29.0   1179 -1150
 3  2013     1     1     2058        8      159 EWR    TPA     8.00  1258 -1250
 4  2013     1     1     2102      146      199 EWR    SJU   106     1262 -1156
 5  2013     1     1     2108       25      354 EWR    SFO    25.0   1268 -1243
 6  2013     1     1     2120       16      160 LGA    FLL    16.0   1280 -1264
 7  2013     1     1     2121        6      143 EWR    MCO     6.00  1281 -1275
 8  2013     1     1     2128       26      338 JFK    LAX    26.0   1288 -1262
 9  2013     1     1     2134       20      152 EWR    FLL    20.0   1294 -1274
10  2013     1     1     2136       25      154 EWR    FLL    25.0   1296 -1271
# ... with 10,623 more rows

We can fix the negative values by adding 24*60 to them (we keep the positive values as is).

Note that transmute() will only keep the new variables.

In[25]:

transmute(my_flights_total, arr_time, dep_time,
          new_total_time = (total_time < 0)*(total_time + 24*60) + 
          (total_time >= 0)*total_time) %>% print

# A tibble: 336,776 x 3
   arr_time dep_time new_total_time
      <int>    <int>          <dbl>
 1      830      517          193  
 2      850      533          197  
 3      923      542          221  
 4     1004      544          260  
 5      812      554          138  
 6      740      554          106  
 7      913      555          198  
 8      709      557           72.0
 9      838      557          161  
10      753      558          115  
# ... with 336,766 more rows

A nice feature of mutate()/transmute() is that you can use columns defined earlier in the command:

In[26]:

print(mutate(flights, gain = arr_delay - dep_delay, gain_per_hour = gain / (air_time / 60)))

# A tibble: 336,776 x 21
    year month   day dep_t sched dep_d arr_ sched arr_d carr flig tail
   <int> <int> <int>  <int>  <int>  <dbl> <int>  <int>  <dbl> <chr> <int> <chr>
 1  2013     1     1    517    515   2.00   830    819  11.0  UA     1545 N142
 2  2013     1     1    533    529   4.00   850    830  20.0  UA     1714 N242
 3  2013     1     1    542    540   2.00   923    850  33.0  AA     1141 N619
 4  2013     1     1    544    545  -1.00  1004   1022 -18.0  B6      725 N804
 5  2013     1     1    554    600  -6.00   812    837 -25.0  DL      461 N668
 6  2013     1     1    554    558  -4.00   740    728  12.0  UA     1696 N394
 7  2013     1     1    555    600  -5.00   913    854  19.0  B6      507 N516
 8  2013     1     1    557    600  -3.00   709    723 -14.0  EV     5708 N829
 9  2013     1     1    557    600  -3.00   838    846 - 8.00 B6       79 N593
10  2013     1     1    558    600  -2.00   753    745   8.00 AA      301 N3AL
# ... with 336,766 more rows, and 9 more variables: origin <chr>, dest <chr>,
#   air_time <dbl>, distance <dbl>, hour <dbl>, minute <dbl>, time_hour <dttm>,
#   gain <dbl>, gain_per_hour <dbl>
…
In[29]:

filter(flights, !is.na(dep_delay)) %>% summarize(delay=mean(dep_delay))

  delay   
1 12.63907

Grouping observations
summarize() is most useful when combined with group_by() to group observations before calculating the summary statistic. The group_by function tells R how your data are grouped:

In[30]:

print(by_month <- group_by(flights, year, month))  # must use <- here :)

# A tibble: 336,776 x 19
# Groups:   year, month [12]
    year month   day dep_t sched dep_d arr_ sched arr_d carr flig tail
   <int> <int> <int>  <int>  <int>  <dbl> <int>  <int>  <dbl> <chr> <int> <chr>
 1  2013     1     1    517    515   2.00   830    819  11.0  UA     1545 N142
 2  2013     1     1    533    529   4.00   850    830  20.0  UA     1714 N242
 3  2013     1     1    542    540   2.00   923    850  33.0  AA     1141 N619
 4  2013     1     1    544    545  -1.00  1004   1022 -18.0  B6      725 N804
 5  2013     1     1    554    600  -6.00   812    837 -25.0  DL      461 N668
 6  2013     1     1    554    558  -4.00   740    728  12.0  UA     1696 N394
 7  2013     1     1    555    600  -5.00   913    854  19.0  B6      507 N516
 8  2013     1     1    557    600  -3.00   709    723 -14.0  EV     5708 N829
 9  2013     1     1    557    600  -3.00   838    846 - 8.00 B6       79 N593
10  2013     1     1    558    600  -2.00   753    745   8.00 AA      301 N3AL
# ... with 336,766 more rows, and 7 more variables: origin <chr>, dest <chr>,
#   air_time <dbl>, distance <dbl>, hour <dbl>, minute <dbl>, time_hour <dttm>
…
Clearly better players get more at-bats. Who are the best players? If we sort by batting average, we see:

In[39]:

batters %>% arrange(desc(batting_average)) %>% print

# A tibble: 18,915 x 3
   playerID  batting_average at_bats
   <chr>               <dbl>   <int>
 1 abramge01            1.00       1
 2 banisje01            1.00       1
 3 bartocl01            1.00       1
 4 bassdo01             1.00       1
 5 berrijo01            1.00       1
 6 birasst01            1.00       2
 7 bruneju01            1.00       1
 8 burnscb01            1.00       1
 9 cammaer01            1.00       1
10 campsh01             1.00       1
# ... with 18,905 more rows

To get a better estimate we should restrict to people who had at least 100 at-bats, say:

In[40]:

batters %>% arrange(desc(batting_average)) %>% filter(at_bats >= 1000) %>% print

# A tibble: 3,693 x 3
   playerID  batting_average at_bats
   <chr>               <dbl>   <int>
 1 cobbty01            0.366   11434
 2 barnero01           0.359    2392
 3 hornsro01           0.358    8173
 4 jacksjo01           0.356    4981
 5 meyerle01           0.356    1443
 6 odoulle01           0.349    3264
 7 delahed01           0.346    7505
 8 mcveyca01           0.346    2513
 9 speaktr01           0.345   10195
10 willite01           0.344    7706
# ... with 3,683 more rows

Some other examples of aggregation
Compute the number of unique destinations each day of the month:

In[41]:

group_by(flights, day) %>% summarize(n_distinct(dest)) %>% print

# A tibble: 31 x 2
     day `n_distinct(dest)`
   <int>              <int>
 1     1                 96
 2     2                101
 3     3                 97
 4     4                 96
 5     5                100
 6     6                 99
 7     7                 96
 8     8                 95
 9     9                101
10    10                 97
# ... with 21 more rows
…
