Lecture05
…
Pipes (5.6.1)

Summary of 5

Visualizing distributions (7)

Grouped mutates and filters
Earlier we saw how to use group_by() and summarize() to calculate summary statistics across different groups. It is also possible to combine groups with mutate() and filter(). The following command finds the ten-most delayed flights for each day of the year:

In[2]:

flights %>% group_by(month, day) %>% filter(rank(desc(dep_delay)) <= 5) %>% print

# A tibble: 1,806 x 19
# Groups:   month, day [365]
    year month   day dep_t sched_ dep_d arr_ sched arr_ carr flig tail
   <int> <int> <int>  <int>   <int>  <dbl> <int>  <int> <dbl> <chr> <int> <chr>
 1  2013     1     1    848    1835    853  1001   1950   851 MQ     3944 N942
 2  2013     1     1   1815    1325    290  2120   1542   338 EV     4417 N171
 3  2013     1     1   1842    1422    260  1958   1535   263 EV     4633 N181
 4  2013     1     1   2205    1720    285    46   2040   246 AA     1999 N5DN
 5  2013     1     1   2343    1724    379   314   1938   456 EV     4321 N211
 6  2013     1     2   1244     900    224  1431   1104   207 EV     4412 N139
 7  2013     1     2   1332     904    268  1616   1128   288 EV     4364 N411
 8  2013     1     2   1412     838    334  1710   1147   323 UA      468 N474
 9  2013     1     2   1607    1030    337  2003   1355   368 AA      179 N324
10  2013     1     2   2131    1512    379  2340   1741   359 UA      488 N593
# ... with 1,796 more rows, and 7 more variables: origin <chr>, dest <chr>,
#   air_time <dbl>, distance <dbl>, hour <dbl>, minute <dbl>, time_hour <dttm>

We could have equivalently written this as:

In[3]:

flights %>% group_by(month, day) %>% top_n(5, dep_delay) %>% print

# A tibble: 1,844 x 19
# Groups:   month, day [365]
    year month   day dep_t sched_ dep_d arr_ sched arr_ carr flig tail
   <int> <int> <int>  <int>   <int>  <dbl> <int>  <int> <dbl> <chr> <int> <chr>
 1  2013     1     1    848    1835    853  1001   1950   851 MQ     3944 N942
 2  2013     1     1   1815    1325    290  2120   1542   338 EV     4417 N171
 3  2013     1     1   1842    1422    260  1958   1535   263 EV     4633 N181
 4  2013     1     1   2205    1720    285    46   2040   246 AA     1999 N5DN
 5  2013     1     1   2343    1724    379   314   1938   456 EV     4321 N211
 6  2013     1     2   1244     900    224  1431   1104   207 EV     4412 N139
 7  2013     1     2   1332     904    268  1616   1128   288 EV     4364 N411
 8  2013     1     2   1412     838    334  1710   1147   323 UA      468 N474
 9  2013     1     2   1607    1030    337  2003   1355   368 AA      179 N324
10  2013     1     2   2131    1512    379  2340   1741   359 UA      488 N593
# ... with 1,834 more rows, and 7 more variables: origin <chr>, dest <chr>,
#   air_time <dbl>, distance <dbl>, hour <dbl>, minute <dbl>, time_hour <dttm>

A grouped mutate acts similarly. Any aggregate functions like sum() or n() are evaluated over their respective subgroups. The following commands compute the proportion of each carrier's total annual attributable to each flight.

In[4]:

flights %>% group_by(carrier) %>% filter(dep_delay > 0) %>% 
            mutate(prop_delay = dep_delay / sum(dep_delay)) %>% 
            select(carrier, month, day, dep_delay, prop_delay) %>% print

# A tibble: 128,432 x 5
# Groups:   carrier [16]
   carrier month   day dep_delay prop_delay
   <chr>   <int> <int>     <dbl>      <dbl>
 1 UA          1     1      2.00 0.00000245
 2 UA          1     1      4.00 0.00000490
 3 AA          1     1      2.00 0.00000530
 4 B6          1     1      1.00 0.00000117
 5 MQ          1     1      8.00 0.0000222 
 6 UA          1     1     11.0  0.0000135 
 7 B6          1     1      3.00 0.00000352
 8 AA          1     1     13.0  0.0000344 
 9 EV          1     1     24.0  0.0000206 
10 UA          1     1      8.00 0.00000981
# ... with 128,422 more rows
…
= versus ==
Remember that = and == mean different things. The former is used for assignment and to pass keyword parameters to functions. The latter is used to test for equality and returns either TRUE or FALSE.

In[12]:

mutate(flights, carrier == "UA") %>% select(ncol(flights) + 1) %>% print
# filter(flights, carrier = "UA")  ## error

# A tibble: 336,776 x 1
   `carrier == "UA"`
   <lgl>            
 1 T                
 2 T                
 3 F                
 4 F                
 5 F                
 6 T                
 7 F                
 8 F                
 9 F                
10 F                
# ... with 336,766 more rows
…
These will take a large amount of time to run because R is creating a huge factor, one with a level for every observation in your data table.

Some worked examples
Finally, we'll work through a few examples of how to put all of this together.

Plot the on-time percentage by month for each airline

In[16]:

ot = flights %>% mutate(on_time=arr_delay <= 0) %>% select(month, carrier, on_time) %>% print

# A tibble: 336,776 x 3
   month carrier on_time
   <int> <chr>   <lgl>  
 1     1 UA      F      
 2     1 UA      F      
 3     1 AA      F      
 4     1 B6      T      
 5     1 DL      T      
 6     1 UA      F      
 7     1 B6      F      
 8     1 EV      T      
 9     1 B6      T      
10     1 AA      F      
# ... with 336,766 more rows

In[17]:

ot = ot %>% group_by(carrier, month) %>%
            summarize(on_time_pct=mean(on_time, na.rm=T), n=n()) %>% print

# A tibble: 185 x 4
# Groups:   carrier [?]
   carrier month on_time_pct     n
   <chr>   <int>       <dbl> <int>
 1 9E          1       0.578  1573
 2 9E          2       0.597  1459
 3 9E          3       0.674  1627
 4 9E          4       0.632  1511
 5 9E          5       0.607  1462
 6 9E          6       0.522  1437
 7 9E          7       0.512  1494
 8 9E          8       0.615  1456
 9 9E          9       0.749  1540
10 9E         10       0.677  1673
# ... with 175 more rows
…
Almost 2/3rds of the flights are from the top six carriers, which happen to be the ones we chose in the earlier graph. So we can feel confident in our choice, knowing that there is plenty of support for it in the data.

Visualizing distributions

Recall that a categorical variable is one that can only take one of a (small) finite number of values. For example, in the diamonds data set, color is a categorical variable.

In[22]:

print(diamonds)

# A tibble: 53,940 x 10
   carat cut       color clarity depth table price     x     y     z
   <dbl> <ord>     <ord> <ord>   <dbl> <dbl> <int> <dbl> <dbl> <dbl>
 1 0.230 Ideal     E     SI2      61.5  55.0   326  3.95  3.98  2.43
 2 0.210 Premium   E     SI1      59.8  61.0   326  3.89  3.84  2.31
 3 0.230 Good      E     VS1      56.9  65.0   327  4.05  4.07  2.31
 4 0.290 Premium   I     VS2      62.4  58.0   334  4.20  4.23  2.63
 5 0.310 Good      J     SI2      63.3  58.0   335  4.34  4.35  2.75
 6 0.240 Very Good J     VVS2     62.8  57.0   336  3.94  3.96  2.48
 7 0.240 Very Good I     VVS1     62.3  57.0   336  3.95  3.98  2.47
 8 0.260 Very Good H     SI1      61.9  55.0   337  4.07  4.11  2.53
 9 0.220 Fair      E     VS2      65.1  61.0   337  3.87  3.78  2.49
10 0.230 Very Good H     VS1      59.4  61.0   338  4.00  4.05  2.39
# ... with 53,930 more rows
…
We will again reproduce this plot by hand using the tools we developed earlier. The cut_width(v, k) function can be used to count how many observations in v fall into buckets of width k. In the preceding plot we chose a binwidth=5 so that will be our value of k.

In[29]:

flights_nona %>% filter(dep_delay < 60) %>%
    count(cw=cut_width(dep_delay, 5)) %>% print %>% ggplot(aes(x=cw, y=n)) + geom_col() +
    theme(axis.text.x = element_text(angle = 45, hjust = 1))

# A tibble: 21 x 2
   cw                 n
   <fctr>         <int>
 1 [-47.5,-42.5]      1
 2 (-37.5,-32.5]      1
 3 (-32.5,-27.5]      2
 4 (-27.5,-22.5]     14
 5 (-22.5,-17.5]    160
 6 (-17.5,-12.5]   2079
 7 (-12.5,-7.5]   29878
 8 (-7.5,-2.5]   111111
 9 (-2.5,2.5]     71126
10 (2.5,7.5]      22013
# ... with 11 more rows
…
