Lecture10
…
In[3]:

print(airports)

# A tibble: 1,458 x 8
   faa   name                             lat    lon   alt    tz dst   tzone   
   <chr> <chr>                          <dbl>  <dbl> <int> <dbl> <chr> <chr>   
 1 04G   Lansdowne Airport               41.1 - 80.6  1044 -5.00 A     America
 2 06A   Moton Field Municipal Airport   32.5 - 85.7   264 -6.00 A     America
 3 06C   Schaumburg Regional             42.0 - 88.1   801 -6.00 A     America
 4 06N   Randall Airport                 41.4 - 74.4   523 -5.00 A     America
 5 09J   Jekyll Island Airport           31.1 - 81.4    11 -5.00 A     America
 6 0A9   Elizabethton Municipal Airport  36.4 - 82.2  1593 -5.00 A     America
 7 0G6   Williams County Airport         41.5 - 84.5   730 -5.00 A     America
 8 0G7   Finger Lakes Regional Airport   42.9 - 76.8   492 -5.00 A     America
 9 0P2   Shoestring Aviation Airfield    39.8 - 76.6  1000 -5.00 U     America
10 0S9   Jefferson County Intl           48.1 -123     108 -8.00 A     America
# ... with 1,448 more rows

In[4]:

print(planes)

# A tibble: 3,322 x 9
   tailnum  year type                    manufa model  engi seats speed engi
   <chr>   <int> <chr>                   <chr>   <chr>  <int> <int> <int> <chr>
 1 N10156   2004 Fixed wing multi engine EMBRAER EMB-1     2    55    NA Turb
 2 N102UW   1998 Fixed wing multi engine AIRBUS A320-     2   182    NA Turb
 3 N103US   1999 Fixed wing multi engine AIRBUS A320-     2   182    NA Turb
 4 N104UW   1999 Fixed wing multi engine AIRBUS A320-     2   182    NA Turb
 5 N10575   2002 Fixed wing multi engine EMBRAER EMB-1     2    55    NA Turb
 6 N105UW   1999 Fixed wing multi engine AIRBUS A320-     2   182    NA Turb
 7 N107US   1999 Fixed wing multi engine AIRBUS A320-     2   182    NA Turb
 8 N108UW   1999 Fixed wing multi engine AIRBUS A320-     2   182    NA Turb
 9 N109UW   1999 Fixed wing multi engine AIRBUS A320-     2   182    NA Turb
10 N110UW   1999 Fixed wing multi engine AIRBUS A320-     2   182    NA Turb
# ... with 3,312 more rows

In[5]:

print(weather)

# A tibble: 26,130 x 15
   origin  year month   day  hour  temp  dewp humid wind_d wind_ wind_ prec
   <chr>  <dbl> <dbl> <int> <int> <dbl> <dbl> <dbl>   <dbl>  <dbl>  <dbl> <dbl>
 1 EWR     2013  1.00     1     0  37.0  21.9  54.0     230  10.4   11.9      0
 2 EWR     2013  1.00     1     1  37.0  21.9  54.0     230  13.8   15.9      0
 3 EWR     2013  1.00     1     2  37.9  21.9  52.1     230  12.7   14.6      0
 4 EWR     2013  1.00     1     3  37.9  23.0  54.5     230  13.8   15.9      0
 5 EWR     2013  1.00     1     4  37.9  24.1  57.0     240  15.0   17.2      0
 6 EWR     2013  1.00     1     6  39.0  26.1  59.4     270  10.4   11.9      0
 7 EWR     2013  1.00     1     7  39.0  27.0  61.6     250   8.06   9.27     0
 8 EWR     2013  1.00     1     8  39.0  28.0  64.4     240  11.5   13.2      0
 9 EWR     2013  1.00     1     9  39.9  28.0  62.2     250  12.7   14.6      0
10 EWR     2013  1.00     1    10  39.0  28.0  64.4     260  12.7   14.6      0
# ... with 26,120 more rows, and 3 more variables: pressure <dbl>, visib <dbl>,
#   time_hour <dttm>
…
flights connects to weather via origin (the location), and year, month, day and hour.

Keys
The "key" to understanding relational databases is... keys.

Primary Key
A primary key is a variable (or set of variables) that uniquely identifies an observation in its own table: given the primary key, there is at most one row in the table that matches the key.

In the planes table, each airplane is identified by its tailnum:

In[6]:

print(planes)

# A tibble: 3,322 x 9
   tailnum  year type                    manufa model  engi seats speed engi
   <chr>   <int> <chr>                   <chr>   <chr>  <int> <int> <int> <chr>
 1 N10156   2004 Fixed wing multi engine EMBRAER EMB-1     2    55    NA Turb
 2 N102UW   1998 Fixed wing multi engine AIRBUS A320-     2   182    NA Turb
 3 N103US   1999 Fixed wing multi engine AIRBUS A320-     2   182    NA Turb
 4 N104UW   1999 Fixed wing multi engine AIRBUS A320-     2   182    NA Turb
 5 N10575   2002 Fixed wing multi engine EMBRAER EMB-1     2    55    NA Turb
 6 N105UW   1999 Fixed wing multi engine AIRBUS A320-     2   182    NA Turb
 7 N107US   1999 Fixed wing multi engine AIRBUS A320-     2   182    NA Turb
 8 N108UW   1999 Fixed wing multi engine AIRBUS A320-     2   182    NA Turb
 9 N109UW   1999 Fixed wing multi engine AIRBUS A320-     2   182    NA Turb
10 N110UW   1999 Fixed wing multi engine AIRBUS A320-     2   182    NA Turb
# ... with 3,312 more rows
…
In[8]:

flights %>% summarize(n=n(), nd=n_distinct(tailnum))

  n      nd  
1 336776 4044

What is the primary key for the flights table?

In[9]:

print(flights)

# A tibble: 336,776 x 19
    year month   day dep_t sched dep_d arr_ sched arr_d carr flig tail
   <int> <int> <int>  <int>  <int>  <dbl> <int>  <int>  <dbl> <chr> <int> <chr>
 1  2013     1     1    517    515   2.00   830    819  11.0  UA     1545 N142
 2  2013     1     1    533    529   4.00   850    830  20.0  UA     1714 N242
 3  2013     1     1    542    540   2.00   923    850  33.0  AA     1141 N619
 4  2013     1     1    544    545  -1.00  1004   1022 -18.0  B6      725 N804
 5  2013     1     1    554    600  -6.00   812    837 -25.0  DL      461 N668
 6  2013     1     1    554    558  -4.00   740    728  12.0  UA     1696 N394
 7  2013     1     1    555    600  -5.00   913    854  19.0  B6      507 N516
 8  2013     1     1    557    600  -3.00   709    723 -14.0  EV     5708 N829
 9  2013     1     1    557    600  -3.00   838    846 - 8.00 B6       79 N593
10  2013     1     1    558    600  -2.00   753    745   8.00 AA      301 N3AL
# ... with 336,766 more rows, and 7 more variables: origin <chr>, dest <chr>,
#   air_time <dbl>, distance <dbl>, hour <dbl>, minute <dbl>, time_hour <dttm>
…
In[11]:

flights %>% summarize(n=n(), nd=n_distinct(tailnum, time_hour, minute))

  n      nd    
1 336776 336367

This says that there are certain airplanes that are marked as having departed more than once in the same year, month, day, hour and minute. We can inspect these rows as follows:

In[12]:

print(group_by(flights, tailnum, time_hour, minute) %>% count %>% filter(n>1))

# A tibble: 298 x 4
# Groups:   tailnum, time_hour, minute [298]
   tailnum time_hour           minute     n
   <chr>   <dttm>               <dbl> <int>
 1 N11119  2013-06-10 16:00:00   55.0     2
 2 N11192  2013-08-26 08:00:00   30.0     2
 3 N12563  2013-02-04 16:00:00   19.0     2
 4 N12564  2013-01-13 20:00:00    0       2
 5 N12900  2013-07-10 21:00:00   29.0     2
 6 N13969  2013-01-28 07:00:00   59.0     2
 7 N14148  2013-03-12 06:00:00   30.0     2
 8 N14558  2013-04-19 13:00:00   29.0     2
 9 N14916  2013-02-11 13:00:00   15.0     2
10 N14974  2013-07-26 06:00:00   30.0     2
# ... with 288 more rows

These likely indicate rounding or data entry errors.

This illustrates an important point: not all data tables have a primary key. It is of course always possible to add one by numbering the rows to form what is called a "surrogate key":

In[13]:

mutate(flights, key=row_number()) %>% select(key, everything()) %>% print %>% 
    summarize(n=n(), nd=n_distinct(key))

# A tibble: 336,776 x 20
     key  year month   day dep_t sched_ dep_ arr_ sched arr_d carr flig
   <int> <int> <int> <int>  <int>   <int> <dbl> <int>  <int>  <dbl> <chr> <int>
 1     1  2013     1     1    517     515  2.00   830    819  11.0  UA     1545
 2     2  2013     1     1    533     529  4.00   850    830  20.0  UA     1714
 3     3  2013     1     1    542     540  2.00   923    850  33.0  AA     1141
 4     4  2013     1     1    544     545 -1.00  1004   1022 -18.0  B6      725
 5     5  2013     1     1    554     600 -6.00   812    837 -25.0  DL      461
 6     6  2013     1     1    554     558 -4.00   740    728  12.0  UA     1696
 7     7  2013     1     1    555     600 -5.00   913    854  19.0  B6      507
 8     8  2013     1     1    557     600 -3.00   709    723 -14.0  EV     5708
 9     9  2013     1     1    557     600 -3.00   838    846 - 8.00 B6       79
10    10  2013     1     1    558     600 -2.00   753    745   8.00 AA      301
# ... with 336,766 more rows, and 8 more variables: tailnum <chr>,
#   origin <chr>, dest <chr>, air_time <dbl>, distance <dbl>, hour <dbl>,
#   minute <dbl>, time_hour <dttm>
…
Many-to-many: For example, each airline flies to many airports; each airport hosts many airlines.

One-to-one. Each row in one table corresponds uniquely to a row in a second table. This is relatively uncommon because you could just as easily combine the two tables into one.

Joins
Joins are the way the we combine or "merge" two data tables based on keys.

Mutating joins
Imagine you want to add the full airline name to the flights data. You can combine the airlines and flights data frames with left_join():

In[16]:

left_join(flights, airlines, by="carrier") %>% select(year, month, day, tailnum, carrier, name) %>% print

# A tibble: 336,776 x 6
    year month   day tailnum carrier name                    
   <int> <int> <int> <chr>   <chr>   <chr>                   
 1  2013     1     1 N14228  UA      United Air Lines Inc.   
 2  2013     1     1 N24211  UA      United Air Lines Inc.   
 3  2013     1     1 N619AA  AA      American Airlines Inc.  
 4  2013     1     1 N804JB  B6      JetBlue Airways         
 5  2013     1     1 N668DN  DL      Delta Air Lines Inc.    
 6  2013     1     1 N39463  UA      United Air Lines Inc.   
 7  2013     1     1 N516JB  B6      JetBlue Airways         
 8  2013     1     1 N829AS  EV      ExpressJet Airlines Inc.
 9  2013     1     1 N593JB  B6      JetBlue Airways         
10  2013     1     1 N3ALAA  AA      American Airlines Inc.  
# ... with 336,766 more rows
…
Left joins are the most common. Use them to look up data in another table, but preserve your original observations when there in cases where the other table does not have a match.

In[20]:

left_join(flights, planes, by="tailnum") %>% filter(is.na(manufacturer)) %>% 
    select(carrier, flight, tailnum, type, manufacturer, model)  %>% print

# A tibble: 52,606 x 6
   carrier flight tailnum type  manufacturer model
   <chr>    <int> <chr>   <chr> <chr>        <chr>
 1 AA         301 N3ALAA  <NA>  <NA>         <NA> 
 2 AA         707 N3DUAA  <NA>  <NA>         <NA> 
 3 MQ        4650 N542MQ  <NA>  <NA>         <NA> 
 4 MQ        4401 N730MQ  <NA>  <NA>         <NA> 
 5 MQ        3768 N9EAMQ  <NA>  <NA>         <NA> 
 6 UA         303 N532UA  <NA>  <NA>         <NA> 
 7 AA        1837 N3EMAA  <NA>  <NA>         <NA> 
 8 MQ        4599 N518MQ  <NA>  <NA>         <NA> 
 9 AA         413 N3BAAA  <NA>  <NA>         <NA> 
10 AA         303 N3CYAA  <NA>  <NA>         <NA> 
# ... with 52,596 more rows
…
Defining the key columns
There are several ways to specify the key= parameter when you perform a join.

The default is key=NULL which will perform a natural join: it will take the key to be the intersection of all of the column names in the two tables:

In[21]:

left_join(flights, airlines) %>% print

Joining, by = "carrier"

# A tibble: 336,776 x 20
    year month   day dep_t sched dep_d arr_ sched arr_d carr flig tail
   <int> <int> <int>  <int>  <int>  <dbl> <int>  <int>  <dbl> <chr> <int> <chr>
 1  2013     1     1    517    515   2.00   830    819  11.0  UA     1545 N142
 2  2013     1     1    533    529   4.00   850    830  20.0  UA     1714 N242
 3  2013     1     1    542    540   2.00   923    850  33.0  AA     1141 N619
 4  2013     1     1    544    545  -1.00  1004   1022 -18.0  B6      725 N804
 5  2013     1     1    554    600  -6.00   812    837 -25.0  DL      461 N668
 6  2013     1     1    554    558  -4.00   740    728  12.0  UA     1696 N394
 7  2013     1     1    555    600  -5.00   913    854  19.0  B6      507 N516
 8  2013     1     1    557    600  -3.00   709    723 -14.0  EV     5708 N829
 9  2013     1     1    557    600  -3.00   838    846 - 8.00 B6       79 N593
10  2013     1     1    558    600  -2.00   753    745   8.00 AA      301 N3AL
# ... with 336,766 more rows, and 8 more variables: origin <chr>, dest <chr>,
#   air_time <dbl>, distance <dbl>, hour <dbl>, minute <dbl>, time_hour <dttm>,
#   name <chr>

We can also specify the join column as we did above:

In[22]:

left_join(flights, airlines, by="carrier") %>% print

# A tibble: 336,776 x 20
    year month   day dep_t sched dep_d arr_ sched arr_d carr flig tail
   <int> <int> <int>  <int>  <int>  <dbl> <int>  <int>  <dbl> <chr> <int> <chr>
 1  2013     1     1    517    515   2.00   830    819  11.0  UA     1545 N142
 2  2013     1     1    533    529   4.00   850    830  20.0  UA     1714 N242
 3  2013     1     1    542    540   2.00   923    850  33.0  AA     1141 N619
 4  2013     1     1    544    545  -1.00  1004   1022 -18.0  B6      725 N804
 5  2013     1     1    554    600  -6.00   812    837 -25.0  DL      461 N668
 6  2013     1     1    554    558  -4.00   740    728  12.0  UA     1696 N394
 7  2013     1     1    555    600  -5.00   913    854  19.0  B6      507 N516
 8  2013     1     1    557    600  -3.00   709    723 -14.0  EV     5708 N829
 9  2013     1     1    557    600  -3.00   838    846 - 8.00 B6       79 N593
10  2013     1     1    558    600  -2.00   753    745   8.00 AA      301 N3AL
# ... with 336,766 more rows, and 8 more variables: origin <chr>, dest <chr>,
#   air_time <dbl>, distance <dbl>, hour <dbl>, minute <dbl>, time_hour <dttm>,
#   name <chr>
…
1. left_join(flights, airlines, by = carrier) %>% print
2. eval(lhs, parent, parent)
3. eval(lhs, parent, parent)
4. left_join(flights, airlines, by = carrier)
5. left_join.tbl_df(flights, airlines, by = carrier)
6. common_by(by, x, y)

Finally, we can be explicit about the column names. This is necessary in situations where the key has a different name in each table. For example, to join the airports table to flights, we need to match the origin/dest column in flights to the faa column in airports:

In[23]:

flights %>% left_join(airports, c("dest" = "faa")) %>% select("origin", "dest", 20:23) %>% print

# A tibble: 336,776 x 6
   origin dest  name                              lat   lon   alt
   <chr>  <chr> <chr>                           <dbl> <dbl> <int>
 1 EWR    IAH   George Bush Intercontinental     30.0 -95.3    97
 2 LGA    IAH   George Bush Intercontinental     30.0 -95.3    97
 3 JFK    MIA   Miami Intl                       25.8 -80.3     8
 4 JFK    BQN   <NA>                             NA    NA      NA
 5 LGA    ATL   Hartsfield Jackson Atlanta Intl  33.6 -84.4  1026
 6 EWR    ORD   Chicago Ohare Intl               42.0 -87.9   668
 7 EWR    FLL   Fort Lauderdale Hollywood Intl   26.1 -80.2     9
 8 LGA    IAD   Washington Dulles Intl           38.9 -77.5   313
 9 JFK    MCO   Orlando Intl                     28.4 -81.3    96
10 LGA    ORD   Chicago Ohare Intl               42.0 -87.9   668
# ... with 336,766 more rows
…
{sql}
SELECT <col1>, <col2>, ..., <coln> FROM <table>

Note the similarity to the corresponding tidyverse command:

{r}
select(<table>, <col1>, <col2>, ..., <coln>)

In[26]:

flights_sql %>% dbGetQuery("SELECT tailnum FROM flights") %>% as_tibble %>% print
flights %>% select(tailnum) %>% print

# A tibble: 336,776 x 1
   tailnum
   <chr>  
 1 N14228 
 2 N24211 
 3 N619AA 
 4 N804JB 
 5 N668DN 
 6 N39463 
 7 N516JB 
 8 N829AS 
 9 N593JB 
10 N3ALAA 
# ... with 336,766 more rows
# A tibble: 336,776 x 1
   tailnum
   <chr>  
 1 N14228 
 2 N24211 
 3 N619AA 
 4 N804JB 
 5 N668DN 
 6 N39463 
 7 N516JB 
 8 N829AS 
 9 N593JB 
10 N3ALAA 
# ... with 336,766 more rows

The special character * in SQL will match all columns. It's equivalent to the everything() command in tidyverse:

In[27]:

dbGetQuery(flights_sql, "SELECT * FROM flights") %>% as_tibble %>% print
select(flights, everything()) %>% print

# A tibble: 336,776 x 19
    year month   day dep_t sched dep_d arr_ sched arr_d carr flig tail
   <int> <int> <int>  <int>  <int>  <dbl> <int>  <int>  <dbl> <chr> <int> <chr>
 1  2013     1     1    517    515   2.00   830    819  11.0  UA     1545 N142
 2  2013     1     1    533    529   4.00   850    830  20.0  UA     1714 N242
 3  2013     1     1    542    540   2.00   923    850  33.0  AA     1141 N619
 4  2013     1     1    544    545  -1.00  1004   1022 -18.0  B6      725 N804
 5  2013     1     1    554    600  -6.00   812    837 -25.0  DL      461 N668
 6  2013     1     1    554    558  -4.00   740    728  12.0  UA     1696 N394
 7  2013     1     1    555    600  -5.00   913    854  19.0  B6      507 N516
 8  2013     1     1    557    600  -3.00   709    723 -14.0  EV     5708 N829
 9  2013     1     1    557    600  -3.00   838    846 - 8.00 B6       79 N593
10  2013     1     1    558    600  -2.00   753    745   8.00 AA      301 N3AL
# ... with 336,766 more rows, and 7 more variables: origin <chr>, dest <chr>,
#   air_time <dbl>, distance <dbl>, hour <dbl>, minute <dbl>, time_hour <dbl>
# A tibble: 336,776 x 19
    year month   day dep_t sched dep_d arr_ sched arr_d carr flig tail
   <int> <int> <int>  <int>  <int>  <dbl> <int>  <int>  <dbl> <chr> <int> <chr>
 1  2013     1     1    517    515   2.00   830    819  11.0  UA     1545 N142
 2  2013     1     1    533    529   4.00   850    830  20.0  UA     1714 N242
 3  2013     1     1    542    540   2.00   923    850  33.0  AA     1141 N619
 4  2013     1     1    544    545  -1.00  1004   1022 -18.0  B6      725 N804
 5  2013     1     1    554    600  -6.00   812    837 -25.0  DL      461 N668
 6  2013     1     1    554    558  -4.00   740    728  12.0  UA     1696 N394
 7  2013     1     1    555    600  -5.00   913    854  19.0  B6      507 N516
 8  2013     1     1    557    600  -3.00   709    723 -14.0  EV     5708 N829
 9  2013     1     1    557    600  -3.00   838    846 - 8.00 B6       79 N593
10  2013     1     1    558    600  -2.00   753    745   8.00 AA      301 N3AL
# ... with 336,766 more rows, and 7 more variables: origin <chr>, dest <chr>,
#   air_time <dbl>, distance <dbl>, hour <dbl>, minute <dbl>, time_hour <dttm>
…
This is the same as:

{r}
filter(<table>, dest=="IAH")

Note that SQL uses a single = to check equality!

In[28]:

dbGetQuery(flights_sql, 'SELECT * FROM flights WHERE dest="IAH"') %>% as_tibble %>% print
filter(flights, dest=="IAH") %>% print

# A tibble: 7,198 x 19
    year month   day dep_t sche dep_de arr_ sche arr_de carr flig tail
   <int> <int> <int>  <int> <int>   <dbl> <int> <int>   <dbl> <chr> <int> <chr>
 1  2013     1     1    517   515    2.00   830   819   11.0  UA     1545 N142
 2  2013     1     1    533   529    4.00   850   830   20.0  UA     1714 N242
 3  2013     1     1    623   627 -  4.00   933   932    1.00 UA      496 N459
 4  2013     1     1    728   732 -  4.00  1041  1038    3.00 UA      473 N488
 5  2013     1     1    739   739    0     1104  1038   26.0  UA     1479 N374
 6  2013     1     1    908   908    0     1228  1219    9.00 UA     1220 N122
 7  2013     1     1   1028  1026    2.00  1350  1339   11.0  UA     1004 N765
 8  2013     1     1   1044  1045 -  1.00  1352  1351    1.00 UA      455 N667
 9  2013     1     1   1114   900  134     1447  1222  145    UA     1086 N765
10  2013     1     1   1205  1200    5.00  1503  1505 -  2.00 UA     1461 N394
# ... with 7,188 more rows, and 7 more variables: origin <chr>, dest <chr>,
#   air_time <dbl>, distance <dbl>, hour <dbl>, minute <dbl>, time_hour <dbl>
…
