Lecture18
…
Example
We'll use the modelr package (again part of tidyverse) to learn about modeling.

In[2]:

library(modelr)

The modelr package comes with a simple bivariate dataset that we can model:

In[3]:

sim1 %>% print

# A tibble: 30 x 2
       x     y
   <int> <dbl>
 1     1  4.20
 2     1  7.51
 3     1  2.13
 4     2  8.99
 5     2 10.2 
 6     2 11.3 
 7     3  7.36
 8     3 10.5 
 9     3 10.5 
10     4 12.4 
# ... with 20 more rows
…
