Lecture19
…
Lecture 19: More modeling basics

The sim2 dataset is another example data set containing continuous and categorical data:

In[2]:

sim2 %>% print

# A tibble: 40 x 2
   x          y
   <chr>  <dbl>
 1 a      1.94 
 2 a      1.18 
 3 a      1.24 
 4 a      2.62 
 5 a      1.11 
 6 a      0.866
 7 a     -0.910
 8 a      0.721
 9 a      0.687
10 a      2.07 
# ... with 30 more rows
…
In[3]:

factor(sim2$x)

 [1] a a a a a a a a a a b b b b b b b b b b c c c c c c c c c c d d d d d d d d
[39] d d
Levels: a b c d

We saw last lecture that the formula y ~ x when applied to sim2 would produce the following model matrix:

In[4]:

m = sim2 %>% model_matrix(y ~ x) %>% print

# A tibble: 40 x 4
   `(Intercept)`    xb    xc    xd
           <dbl> <dbl> <dbl> <dbl>
 1          1.00     0     0     0
 2          1.00     0     0     0
 3          1.00     0     0     0
 4          1.00     0     0     0
 5          1.00     0     0     0
 6          1.00     0     0     0
 7          1.00     0     0     0
 8          1.00     0     0     0
 9          1.00     0     0     0
10          1.00     0     0     0
# ... with 30 more rows
…
Categorical and continuous data
modelr::sim3 has both continuous and categorical data:

In[11]:

sim3 %>% print

# A tibble: 120 x 5
      x1 x2       rep      y    sd
   <int> <fctr> <int>  <dbl> <dbl>
 1     1 a          1 -0.571  2.00
 2     1 a          2  1.18   2.00
 3     1 a          3  2.24   2.00
 4     1 b          1  7.44   2.00
 5     1 b          2  8.52   2.00
 6     1 b          3  7.72   2.00
 7     1 c          1  6.51   2.00
 8     1 c          2  5.79   2.00
 9     1 c          3  6.07   2.00
10     1 d          1  2.11   2.00
# ... with 110 more rows
…
Now we get a number of new terms of the form x1:x2<lvl>. What do these represent? Let's again look at the model matrix:

In[16]:

m = sim3 %>% model_matrix(y ~ x1 * x2) %>% print

# A tibble: 120 x 8
   `(Intercept)`    x1   x2b   x2c   x2d `x1:x2b` `x1:x2c` `x1:x2d`
           <dbl> <dbl> <dbl> <dbl> <dbl>    <dbl>    <dbl>    <dbl>
 1          1.00  1.00  0     0     0        0        0        0   
 2          1.00  1.00  0     0     0        0        0        0   
 3          1.00  1.00  0     0     0        0        0        0   
 4          1.00  1.00  1.00  0     0        1.00     0        0   
 5          1.00  1.00  1.00  0     0        1.00     0        0   
 6          1.00  1.00  1.00  0     0        1.00     0        0   
 7          1.00  1.00  0     1.00  0        0        1.00     0   
 8          1.00  1.00  0     1.00  0        0        1.00     0   
 9          1.00  1.00  0     1.00  0        0        1.00     0   
10          1.00  1.00  0     0     1.00     0        0        1.00
# ... with 110 more rows
…
Repeating the same calculation as above, we get that the regression equation for observations with x2=='c' is equal to

$$
y = (a_0 + a_3) + (a_1 + a_6)\times \texttt{x1}.
$$

We see that in this model, each different group of x2 is allowed to have a different slope as well as intercept.

Let's compare mod1 and mod2. To do this we will use the gather_predictions function, which takes a data grid and one or more models and adds a new row for each prediction for each model:

In[18]:

grid = sim3 %>% data_grid(x1, x2) %>% gather_predictions(mod1, mod2) %>% print

# A tibble: 80 x 4
   model    x1 x2      pred
   <chr> <int> <fctr> <dbl>
 1 mod1      1 a       1.67
 2 mod1      1 b       4.56
 3 mod1      1 c       6.48
 4 mod1      1 d       4.03
 5 mod1      2 a       1.48
 6 mod1      2 b       4.37
 7 mod1      2 c       6.28
 8 mod1      2 d       3.84
 9 mod1      3 a       1.28
10 mod1      3 b       4.17
# ... with 70 more rows
…
Which model's residuals look more random to you?

Two continuous variables
The sim4 data set contains two continuous variables:

In[21]:

print(sim4)

# A tibble: 300 x 4
      x1     x2   rep       y
   <dbl>  <dbl> <int>   <dbl>
 1 -1.00 -1.00      1  4.25  
 2 -1.00 -1.00      2  1.21  
 3 -1.00 -1.00      3  0.353 
 4 -1.00 -0.778     1 -0.0467
 5 -1.00 -0.778     2  4.64  
 6 -1.00 -0.778     3  1.38  
 7 -1.00 -0.556     1  0.975 
 8 -1.00 -0.556     2  2.50  
 9 -1.00 -0.556     3  2.70  
10 -1.00 -0.333     1  0.558 
# ... with 290 more rows

We will again compare two models, one with two effects for x1 and x2, and the second with an interaction term:

In[22]:

mod1 = lm(y ~ x1 + x2, data = sim4)
mod2 = lm(y ~ x1 * x2, data = sim4)

With continuous data the behaviour of x1 * x2 is a bit different -- it will be the actual arithemetic product of the two variables:

In[23]:

model_matrix(sim4, y ~ x1 * x2) %>% print

# A tibble: 300 x 4
   `(Intercept)`    x1     x2 `x1:x2`
           <dbl> <dbl>  <dbl>   <dbl>
 1          1.00 -1.00 -1.00    1.00 
 2          1.00 -1.00 -1.00    1.00 
 3          1.00 -1.00 -1.00    1.00 
 4          1.00 -1.00 -0.778   0.778
 5          1.00 -1.00 -0.778   0.778
 6          1.00 -1.00 -0.778   0.778
 7          1.00 -1.00 -0.556   0.556
 8          1.00 -1.00 -0.556   0.556
 9          1.00 -1.00 -0.556   0.556
10          1.00 -1.00 -0.333   0.333
# ... with 290 more rows

Note that R has automatically added in the individual effects for x1 and x2. Very rarely do you want to have an interaction effect without the individual effects as well. Should you want to do so, the : can be used in place of *:

In[24]:

model_matrix(sim4, y ~ x1 : x2) %>% print

# A tibble: 300 x 2
   `(Intercept)` `x1:x2`
           <dbl>   <dbl>
 1          1.00   1.00 
 2          1.00   1.00 
 3          1.00   1.00 
 4          1.00   0.778
 5          1.00   0.778
 6          1.00   0.778
 7          1.00   0.556
 8          1.00   0.556
 9          1.00   0.556
10          1.00   0.333
# ... with 290 more rows

Do look at our the two models' predictions we will use a similar pattern as before. However, instead of using the data_grid function directly, which would generate a row for every unique observation of x1 and x2, we will take a range over the values that we observed using the seq_range function.

In[25]:

grid = sim4 %>% 
  data_grid(
    x1 = seq_range(x1, 5), 
    x2 = seq_range(x2, 5) 
  ) %>% 
  gather_predictions(mod1, mod2) %>% print

# A tibble: 50 x 4
   model     x1     x2   pred
   <chr>  <dbl>  <dbl>  <dbl>
 1 mod1  -1.00  -1.00   0.996
 2 mod1  -1.00  -0.500 -0.395
 3 mod1  -1.00   0     -1.79 
 4 mod1  -1.00   0.500 -3.18 
 5 mod1  -1.00   1.00  -4.57 
 6 mod1  -0.500 -1.00   1.91 
 7 mod1  -0.500 -0.500  0.516
 8 mod1  -0.500  0     -0.875
 9 mod1  -0.500  0.500 -2.27 
10 mod1  -0.500  1.00  -3.66 
# ... with 40 more rows
…
It is possible to use transformations directly in model formulas:

In[30]:

diamonds %>% model_matrix(log(price) ~ log(carat)) %>% print

# A tibble: 53,940 x 2
   `(Intercept)` `log(carat)`
           <dbl>        <dbl>
 1          1.00        -1.47
 2          1.00        -1.56
 3          1.00        -1.47
 4          1.00        -1.24
 5          1.00        -1.17
 6          1.00        -1.43
 7          1.00        -1.43
 8          1.00        -1.35
 9          1.00        -1.51
10          1.00        -1.47
# ... with 53,930 more rows

Most mathematical functions, including log, exp, sin, cos, and sqrt, work exactly as expected. If your transformation involves +, * or ^ then you have to wrap the transformation using a special I function:

In[31]:

sim4 %>% model_matrix(y ~ x1 + x2 + x2^2) %>% print ## wrong

# A tibble: 300 x 3
   `(Intercept)`    x1     x2
           <dbl> <dbl>  <dbl>
 1          1.00 -1.00 -1.00 
 2          1.00 -1.00 -1.00 
 3          1.00 -1.00 -1.00 
 4          1.00 -1.00 -0.778
 5          1.00 -1.00 -0.778
 6          1.00 -1.00 -0.778
 7          1.00 -1.00 -0.556
 8          1.00 -1.00 -0.556
 9          1.00 -1.00 -0.556
10          1.00 -1.00 -0.333
# ... with 290 more rows
…
$$f(x) \approx f(0) + f'(0)x + f''(0)x^2,$$

for $x$ near zero. This is just a linear model

$$y = a_0 + a_1 x_1 + a_2 x_2$$

for $a_i = f^{(i)}(0)$ and $x_i = x^i$.

R provides a special command poly(x, k) which adds all monomials up to order $k$ in x:

In[32]:

sim4 %>% model_matrix(y ~ poly(x1, 4)) %>% print

# A tibble: 300 x 5
   `(Intercept)` `poly(x1, 4)1` `poly(x1, 4)2` `poly(x1, 4)3` `poly(x1, 4)4`
           <dbl>          <dbl>          <dbl>          <dbl>          <dbl>
 1          1.00        -0.0905         0.0953        -0.0828         0.0615
 2          1.00        -0.0905         0.0953        -0.0828         0.0615
 3          1.00        -0.0905         0.0953        -0.0828         0.0615
 4          1.00        -0.0905         0.0953        -0.0828         0.0615
 5          1.00        -0.0905         0.0953        -0.0828         0.0615
 6          1.00        -0.0905         0.0953        -0.0828         0.0615
 7          1.00        -0.0905         0.0953        -0.0828         0.0615
 8          1.00        -0.0905         0.0953        -0.0828         0.0615
 9          1.00        -0.0905         0.0953        -0.0828         0.0615
10          1.00        -0.0905         0.0953        -0.0828         0.0615
# ... with 290 more rows
…
