Lecture21
…
Factors affecting flights
Let's try building up a model that explains the number of flights leaving from NYC airports each day.

In[16]:

library(nycflights13)
daily = flights %>% mutate(date = make_date(year, month, day)) %>% count(date) %>% print

# A tibble: 365 x 2
   date           n
   <date>     <int>
 1 2013-01-01   842
 2 2013-01-02   943
 3 2013-01-03   914
 4 2013-01-04   915
 5 2013-01-05   720
 6 2013-01-06   832
 7 2013-01-07   933
 8 2013-01-08   899
 9 2013-01-09   902
10 2013-01-10   932
# ... with 355 more rows
…
Another way to see this:

In[19]:

daily = daily %>% mutate(wday = wday(date, label = T)) %>% print
daily %>% count(wday, wt = n) %>% ggplot(aes(x = wday, y = nn)) + geom_col()

# A tibble: 365 x 3
   date           n wday 
   <date>     <int> <ord>
 1 2013-01-01   842 Tue  
 2 2013-01-02   943 Wed  
 3 2013-01-03   914 Thu  
 4 2013-01-04   915 Fri  
 5 2013-01-05   720 Sat  
 6 2013-01-06   832 Sun  
 7 2013-01-07   933 Mon  
 8 2013-01-08   899 Tue  
 9 2013-01-09   902 Wed  
10 2013-01-10   932 Thu  
# ... with 355 more rows
…
The gapminder data
We will start by looking at the "gapminder" data, which was popularised by Swedish statistician Hans Rosling. If you don't know about this data or this person, take five minutes and watch one of his videos before coming to lecture.

In[31]:

library(gapminder)
gapminder %>% print

# A tibble: 1,704 x 6
   country     continent  year lifeExp      pop gdpPercap
   <fctr>      <fctr>    <int>   <dbl>    <int>     <dbl>
 1 Afghanistan Asia       1952    28.8  8425333       779
 2 Afghanistan Asia       1957    30.3  9240934       821
 3 Afghanistan Asia       1962    32.0 10267083       853
 4 Afghanistan Asia       1967    34.0 11537966       836
 5 Afghanistan Asia       1972    36.1 13079460       740
 6 Afghanistan Asia       1977    38.4 14880372       786
 7 Afghanistan Asia       1982    39.9 12881816       978
 8 Afghanistan Asia       1987    40.8 13867957       852
 9 Afghanistan Asia       1992    41.7 16317921       649
10 Afghanistan Asia       1997    41.8 22227415       635
# ... with 1,694 more rows
…
As you might have guessed by now, we prefer to avoid this style of coding where possible. What we would like to be able to do is map() the country_model() function over a list of data frames, one per country. In order to do this we need a way to convert gapminder into series of data frames, one per country.

This is the purpose of the nest() command:

In[35]:

by_country = gapminder %>% group_by(country, continent) %>% nest %>% print

# A tibble: 142 x 3
   country     continent data             
   <fctr>      <fctr>    <list>           
 1 Afghanistan Asia      <tibble [12  4]>
 2 Albania     Europe    <tibble [12  4]>
 3 Algeria     Africa    <tibble [12  4]>
 4 Angola      Africa    <tibble [12  4]>
 5 Argentina   Americas  <tibble [12  4]>
 6 Australia   Oceania   <tibble [12  4]>
 7 Austria     Europe    <tibble [12  4]>
 8 Bahrain     Asia      <tibble [12  4]>
 9 Bangladesh  Asia      <tibble [12  4]>
10 Belgium     Europe    <tibble [12  4]>
# ... with 132 more rows
…
Call:
lm(formula = lifeExp ~ year, data = df)

Coefficients:
(Intercept)         year  
  -507.5343       0.2753  

However, it makes more sense to store the models inside of the gap_n table rather than leave them floating about.

In[39]:

by_country = by_country %>% mutate(model = map(data, country_model)) %>% print

# A tibble: 142 x 4
   country     continent data              model   
   <fctr>      <fctr>    <list>            <list>  
 1 Afghanistan Asia      <tibble [12  4]> <S3: lm>
 2 Albania     Europe    <tibble [12  4]> <S3: lm>
 3 Algeria     Africa    <tibble [12  4]> <S3: lm>
 4 Angola      Africa    <tibble [12  4]> <S3: lm>
 5 Argentina   Americas  <tibble [12  4]> <S3: lm>
 6 Australia   Oceania   <tibble [12  4]> <S3: lm>
 7 Austria     Europe    <tibble [12  4]> <S3: lm>
 8 Bahrain     Asia      <tibble [12  4]> <S3: lm>
 9 Bangladesh  Asia      <tibble [12  4]> <S3: lm>
10 Belgium     Europe    <tibble [12  4]> <S3: lm>
# ... with 132 more rows

By keeping the model, data frame, and country/continent all together, everything stays in sync when we alter the data in some way:

In[40]:

by_country %>% arrange(continent, country) %>% print

# A tibble: 142 x 4
   country                  continent data              model   
   <fctr>                   <fctr>    <list>            <list>  
 1 Algeria                  Africa    <tibble [12  4]> <S3: lm>
 2 Angola                   Africa    <tibble [12  4]> <S3: lm>
 3 Benin                    Africa    <tibble [12  4]> <S3: lm>
 4 Botswana                 Africa    <tibble [12  4]> <S3: lm>
 5 Burkina Faso             Africa    <tibble [12  4]> <S3: lm>
 6 Burundi                  Africa    <tibble [12  4]> <S3: lm>
 7 Cameroon                 Africa    <tibble [12  4]> <S3: lm>
 8 Central African Republic Africa    <tibble [12  4]> <S3: lm>
 9 Chad                     Africa    <tibble [12  4]> <S3: lm>
10 Comoros                  Africa    <tibble [12  4]> <S3: lm>
# ... with 132 more rows

Now we can add in the residuals that we sought to compute earlier:

In[41]:

by_country = mutate(by_country, resids = map2(data, model, add_residuals)) %>% print

# A tibble: 142 x 5
   country     continent data              model    resids           
   <fctr>      <fctr>    <list>            <list>   <list>           
 1 Afghanistan Asia      <tibble [12  4]> <S3: lm> <tibble [12  5]>
 2 Albania     Europe    <tibble [12  4]> <S3: lm> <tibble [12  5]>
 3 Algeria     Africa    <tibble [12  4]> <S3: lm> <tibble [12  5]>
 4 Angola      Africa    <tibble [12  4]> <S3: lm> <tibble [12  5]>
 5 Argentina   Americas  <tibble [12  4]> <S3: lm> <tibble [12  5]>
 6 Australia   Oceania   <tibble [12  4]> <S3: lm> <tibble [12  5]>
 7 Austria     Europe    <tibble [12  4]> <S3: lm> <tibble [12  5]>
 8 Bahrain     Asia      <tibble [12  4]> <S3: lm> <tibble [12  5]>
 9 Bangladesh  Asia      <tibble [12  4]> <S3: lm> <tibble [12  5]>
10 Belgium     Europe    <tibble [12  4]> <S3: lm> <tibble [12  5]>
# ... with 132 more rows

The inverse operation to nest() is unnest(). This takes a set of nested data frames and expands them back into a single, unnested dataframe:

In[42]:

resids = by_country %>% unnest(resids) %>% print

# A tibble: 1,704 x 7
   country     continent  year lifeExp      pop gdpPercap   resid
   <fctr>      <fctr>    <int>   <dbl>    <int>     <dbl>   <dbl>
 1 Afghanistan Asia       1952    28.8  8425333       779 -1.11  
 2 Afghanistan Asia       1957    30.3  9240934       821 -0.952 
 3 Afghanistan Asia       1962    32.0 10267083       853 -0.664 
 4 Afghanistan Asia       1967    34.0 11537966       836 -0.0172
 5 Afghanistan Asia       1972    36.1 13079460       740  0.674 
 6 Afghanistan Asia       1977    38.4 14880372       786  1.65  
 7 Afghanistan Asia       1982    39.9 12881816       978  1.69  
 8 Afghanistan Asia       1987    40.8 13867957       852  1.28  
 9 Afghanistan Asia       1992    41.7 16317921       649  0.754 
10 Afghanistan Asia       1997    41.8 22227415       635 -0.534 
# ... with 1,694 more rows
…
In[47]:

nz %>% add_predictions(nz_mod) %>% summarize(r2 = cor(lifeExp, pred) ** 2)

  r2       
1 0.9535846

Using the commands we have learned so far, we can apply the glance function to each model in by_country in order to extract the $R^2$:

In[48]:

gl = by_country %>% mutate(glance = map(model, glance)) %>% 
                    unnest(glance, .drop = T) %>% print

# A tibble: 142 x 13
   country conti r.squ adj.r sigma stati   p.value    df logLik   AIC   BIC
   <fctr>  <fctr>  <dbl>  <dbl> <dbl>  <dbl>     <dbl> <int>  <dbl> <dbl> <dbl>
 1 Afghan Asia    0.948  0.942 1.22   181    9.84e      2 -18.3  42.7  44.1 
 2 Albania Europe  0.911  0.902 1.98   102    1.46e      2 -24.1  54.3  55.8 
 3 Algeria Africa  0.985  0.984 1.32   662    1.81e     2 -19.3  44.6  46.0 
 4 Angola  Africa  0.888  0.877 1.41    79.1  4.59e      2 -20.0  46.1  47.5 
 5 Argent Ameri  0.996  0.995 0.292 2246    4.22e     2 - 1.17  8.35  9.80
 6 Austra Ocean  0.980  0.978 0.621  481    8.67e     2 -10.2  26.4  27.9 
 7 Austria Europe  0.992  0.991 0.407 1261    7.44e     2 - 5.16 16.3  17.8 
 8 Bahrain Asia    0.967  0.963 1.64   291    1.02e      2 -21.9  49.7  51.2 
 9 Bangla Asia    0.989  0.988 0.977  930    3.37e     2 -15.7  37.3  38.8 
10 Belgium Europe  0.995  0.994 0.293 1822    1.20e     2 - 1.20  8.40  9.85
# ... with 132 more rows, and 2 more variables: deviance <dbl>,
#   df.residual <int>
…
