Lecture14
…
In[8]:

library(forcats)

forcats commands are prefixed by fct_ (compare stringr).

For the rest of the examples, we'll use a data set included in forcats called gss_cat. This is a standard data set from the General Social Survey which contains a lot of categorical variables:

In[9]:

print(forcats::gss_cat)

# A tibble: 21,483 x 9
    year marital         age race   rincome        partyid relig   denom  tvho
   <int> <fctr>        <int> <fctr> <fctr>         <fctr>  <fctr>  <fctr> <int>
 1  2000 Never married    26 White  $8000 to 9999  Ind,ne Protes South    12
 2  2000 Divorced         48 White  $8000 to 9999  Not st Protes Bapti    NA
 3  2000 Widowed          67 White  Not applicable Indepe Protes No de     2
 4  2000 Never married    39 White  Not applicable Ind,ne Orthod Not a     4
 5  2000 Divorced         25 White  Not applicable Not st None    Not a     1
 6  2000 Married          25 White  $20000 - 24999 Strong Protes South    NA
 7  2000 Never married    36 White  $25000 or more Not st Christ Not a     3
 8  2000 Divorced         44 White  $7000 to 7999  Ind,ne Protes Luthe    NA
 9  2000 Married          44 White  $25000 or more Not st Protes Other      0
10  2000 Married          47 White  $25000 or more Strong Protes South     3
# ... with 21,473 more rows
…
A date, printed in tibble as <date>, represents a full day on the calendar.

A time within a day, printed as <time>, represents a specific time within an (unspecified) day.

A date-time is a date plus a time (tibble: <dttm>). A date-time uniquely identifies an instant in time (up to a given precision, usually 1 second.)

We've already seen examples of date-times in the flights tibble:

In[30]:

library(nycflights13)
select(flights, time_hour) %>% print

# A tibble: 336,776 x 1
   time_hour          
   <dttm>             
 1 2013-01-01 05:00:00
 2 2013-01-01 05:00:00
 3 2013-01-01 05:00:00
 4 2013-01-01 05:00:00
 5 2013-01-01 06:00:00
 6 2013-01-01 05:00:00
 7 2013-01-01 06:00:00
 8 2013-01-01 06:00:00
 9 2013-01-01 06:00:00
10 2013-01-01 06:00:00
# ... with 336,766 more rows
…
mdy_hm("01/31/2017 08:01")

[1] "2017-01-31 08:01:00 UTC"

Making a date-time from components
We saw in the flights table that date information can be spread across multiple columns. The make_date and make_datetime functions can make dates from these:

In[40]:

mutate(flights, date=make_date(year, month, day)) %>% 
    select(year, month, day, date) %>% 
    print

# A tibble: 336,776 x 4
    year month   day date      
   <int> <int> <int> <date>    
 1  2013     1     1 2013-01-01
 2  2013     1     1 2013-01-01
 3  2013     1     1 2013-01-01
 4  2013     1     1 2013-01-01
 5  2013     1     1 2013-01-01
 6  2013     1     1 2013-01-01
 7  2013     1     1 2013-01-01
 8  2013     1     1 2013-01-01
 9  2013     1     1 2013-01-01
10  2013     1     1 2013-01-01
# ... with 336,766 more rows
…
