Lecture07
…
We can compute these numbers using count().

In[17]:

diamonds %>% count(cut, color) %>% print

# A tibble: 35 x 3
   cut   color     n
   <ord> <ord> <int>
 1 Fair  D       163
 2 Fair  E       224
 3 Fair  F       312
 4 Fair  G       314
 5 Fair  H       303
 6 Fair  I       175
 7 Fair  J       119
 8 Good  D       662
 9 Good  E       933
10 Good  F       909
# ... with 25 more rows
…
