Lecture23
…
#logins <- read_csv('logins.csv.gz') %>% select(-1)
#anon_logins = left_join(logins, users) %>% 
#    mutate(admin = user %in% c('jonth', 'bwjang', 'kasfaw', 'lpuglisi'),
#           duration = (stop_time - start_time),
#           user = ifelse(admin, user, anon_user)) %>% 
#    filter(!is.na(user)) %>% mutate(duration_h = as.numeric(duration / 3600))  %>% 
#    select(-anon_user)
#save(anon_logins, file="anon_logins.RData")

In[5]:

load("anon_logins.RData")
print(anon_logins, width = Inf)

# A tibble: 1,860 x 8
   exit_code reason    start_time          stop_time          
       <int> <chr>     <dttm>              <dttm>             
 1         0 Completed 2018-04-09 15:20:14 2018-04-09 16:27:14
 2         0 Completed 2018-04-09 14:44:41 2018-04-09 15:57:14
 3         0 Completed 2018-04-09 14:17:26 2018-04-09 15:37:14
 4         0 <NA>      2018-04-09 14:05:05 2018-04-09 15:07:14
 5         0 <NA>      2018-04-09 13:39:33 2018-04-09 14:47:14
 6         0 <NA>      2018-04-09 13:24:22 2018-04-09 14:37:14
 7         0 <NA>      2018-04-09 14:20:41 2018-04-09 14:25:40
 8         0 <NA>      2018-04-09 14:20:36 2018-04-09 14:25:36
 9         0 <NA>      2018-04-09 14:16:25 2018-04-09 14:21:25
10         0 <NA>      2018-04-09 14:16:18 2018-04-09 14:21:18
   user                        admin duration duration_h
   <chr>                       <lgl> <time>        <dbl>
 1 chester_lampwick            F     4020         1.12  
 2 mayor_diamond_joe_quimby    F     4353         1.21  
 3 simpson_relative_sales      F     4788         1.33  
 4 bea_simmons                 F     3729         1.04  
 5 shoshana                    F     4061         1.13  
 6 chester_lampwick            F     4372         1.21  
 7 captain_horatio_mccallister F     299          0.0831
 8 mayor_diamond_joe_quimby    F     300          0.0833
 9 dizzy                       F     300          0.0833
10 ice_cream_lady              F     300          0.0833
# ... with 1,850 more rows
…
Note that it is possible to classify PhD students vs. professors with 100% accuracy based on whether they log in on Friday ;-)

Another interesting question is how many concurrent logins are there at any given time?

In[14]:

anon_ts = anon_logins %>% gather(event_type, time, ends_with("_time")) %>% arrange(time) %>% 
                          mutate(duser = ifelse(event_type == "start_time", 1L, -1L)) %>% 
                          mutate(total_users = cumsum(duser)) %>% print

# A tibble: 3,720 x 10
   exit_ reason user  admin dura durat even time                duser tota
    <int> <chr>  <chr> <lgl> <tim>  <dbl> <chr> <dttm>              <int> <int>
 1      0 <NA>   jonth T     300   0.0833 star 2018-01-09 15:56:58     1     1
 2      0 <NA>   jonth T     300   0.0833 stop 2018-01-09 16:01:58    -1     0
 3      0 Compl jonth T     1189  0.330  star 2018-01-09 16:02:02     1     1
 4      0 Compl jonth T     1189  0.330  stop 2018-01-09 16:21:51    -1     0
 5      0 Compl jonth T     1779  0.494  star 2018-01-09 18:12:11     1     1
 6      0 Compl jonth T     1779  0.494  stop 2018-01-09 18:41:50    -1     0
 7      0 <NA>   moldy F     300   0.0833 star 2018-01-09 18:42:05     1     1
 8      0 <NA>   rod_ F     300   0.0833 star 2018-01-09 18:42:07     1     2
 9      0 <NA>   jonth T     300   0.0833 star 2018-01-09 18:42:53     1     3
10      0 <NA>   moldy F     300   0.0833 stop 2018-01-09 18:47:05    -1     2
# ... with 3,710 more rows
…
Finally I was curious about how time spent on the web site correlated with overall student performance. Does more time lead to higher or lower scores on average?

In[24]:

avg_grades = grades %>% group_by(user) %>%
    arrange(user, desc(assignment), grade) %>% mutate(k = row_number()) %>% print %>% 
    summarize(avg_grade = sum(gpct * w)) %>% arrange((avg_grade))

# A tibble: 1,044 x 6
# Groups:   user [116]
   user          assignment grade  gpct      w     k
   <chr>         <chr>      <dbl> <dbl>  <dbl> <int>
 1 actress       ps8         20.0 1.00  0.0625     1
 2 actress       ps7         19.0 0.950 0.0625     2
 3 actress       ps6         18.0 0.900 0.0625     3
 4 actress       ps5         17.0 0.850 0.0625     4
 5 actress       ps4         18.0 0.900 0.0625     5
 6 actress       ps3         20.0 1.00  0.0625     6
 7 actress       ps2         20.0 1.00  0.0625     7
 8 actress       ps1         20.0 1.00  0.0625     8
 9 actress       mt1         22.0 0.489 0.500      9
10 agnes_skinner ps8         17.0 0.850 0.0625     1
# ... with 1,034 more rows
…
