Lecture20
…
In[3]:

df = tibble(csv_files = list.files(path = "data/", pattern = '\\.csv.gz$', full.names = TRUE)) %>% print

# A tibble: 33 x 1
   csv_files                   
   <chr>                       
 1 data//ncaa_games_2002.csv.gz
 2 data//ncaa_games_2003.csv.gz
 3 data//ncaa_games_2004.csv.gz
 4 data//ncaa_games_2005.csv.gz
 5 data//ncaa_games_2006.csv.gz
 6 data//ncaa_games_2007.csv.gz
 7 data//ncaa_games_2008.csv.gz
 8 data//ncaa_games_2009.csv.gz
 9 data//ncaa_games_2010.csv.gz
10 data//ncaa_games_2011.csv.gz
# ... with 23 more rows
…
In[5]:

print(df)

# A tibble: 33 x 2
   csv_files                    data                  
   <chr>                        <list>                
 1 data//ncaa_games_2002.csv.gz <tibble [27,708  11]>
 2 data//ncaa_games_2003.csv.gz <tibble [27,253  11]>
 3 data//ncaa_games_2004.csv.gz <tibble [27,549  11]>
 4 data//ncaa_games_2005.csv.gz <tibble [28,181  11]>
 5 data//ncaa_games_2006.csv.gz <tibble [28,184  11]>
 6 data//ncaa_games_2007.csv.gz <tibble [31,579  11]>
 7 data//ncaa_games_2008.csv.gz <tibble [30,266  11]>
 8 data//ncaa_games_2009.csv.gz <tibble [31,315  11]>
 9 data//ncaa_games_2010.csv.gz <tibble [30,930  11]>
10 data//ncaa_games_2011.csv.gz <tibble [29,840  11]>
# ... with 23 more rows

The df$data column contains entries each of which is the result of calling read_csv on the corresponding entry in csv_files. Since tibbles are lists, the data type of this column reads <list>.

In[6]:

df$data[[1]] %>% print

# A tibble: 27,708 x 11
   opponent_name   game_ score oppo loca neut game atte oppo  year scho
   <chr>           <chr>  <int> <int> <chr> <chr> <chr> <int> <int> <int> <int>
 1 Sul Ross St.    11/16    93    59 Home  <NA>  <NA>   2041  1390  2002 26172
 2 Texas St.       11/25    89    99 Home  <NA>  <NA>   1493   670  2002 26172
 3 Loyola Chicago  11/29    66    86 Away  <NA>  <NA>   1128   371  2002 26172
 4 Illinois        12/01    56    80 Away  <NA>  <NA>  16500   301  2002 26172
 5 Texas           12/05    64    89 Away  <NA>  <NA>   6099   703  2002 26172
 6 UTEP            12/08    56    82 Away  <NA>  <NA>   6203   704  2002 26172
 7 Lamar           12/15    67    69 Home  <NA>  <NA>   1342   346  2002 26172
 8 San Francisco   12/18    80    75 Home  <NA>  <NA>   1360   629  2002 26172
 9 Denver          12/21    81    79 Home  <NA>  <NA>   1415   183  2002 26172
10 Wayland Baptist 12/28    92    83 Home  <NA>  <NA>   2096    NA  2002 26172
# ... with 27,698 more rows
…
We will first combine each of the relevant data types into large tables:

In[8]:

df$dtype = str_match(df$csv_files, "ncaa_([^_.]+)")[,2]
print(df)

# A tibble: 33 x 3
   csv_files                    data                   dtype
   <chr>                        <list>                 <chr>
 1 data//ncaa_games_2002.csv.gz <tibble [27,708  11]> games
 2 data//ncaa_games_2003.csv.gz <tibble [27,253  11]> games
 3 data//ncaa_games_2004.csv.gz <tibble [27,549  11]> games
 4 data//ncaa_games_2005.csv.gz <tibble [28,181  11]> games
 5 data//ncaa_games_2006.csv.gz <tibble [28,184  11]> games
 6 data//ncaa_games_2007.csv.gz <tibble [31,579  11]> games
 7 data//ncaa_games_2008.csv.gz <tibble [30,266  11]> games
 8 data//ncaa_games_2009.csv.gz <tibble [31,315  11]> games
 9 data//ncaa_games_2010.csv.gz <tibble [30,930  11]> games
10 data//ncaa_games_2011.csv.gz <tibble [29,840  11]> games
# ... with 23 more rows
…
for (i in 1:nrow(df)) {
    if (df$dtype[[i]] == "players") {
        df$data[[i]] = mutate_at(df$data[[i]], c("turnovers", "dd", "td"), as.integer)
    }
}

In[10]:

df = df %>% group_by(dtype) %>% do(data=bind_rows(.$data))
games = df[[1, 2]]
games$game_date = mdy(games$game_date)
schools = df[[3, 2]] %>% print

# A tibble: 1,335 x 2
   school_id school_name       
       <int> <chr>             
 1     26172 A&M-Corpus Christi
 2         2 Abilene Christian 
 3     30123 Academy of Art    
 4       929 Adams St.         
 5    506445 Adelbert          
 6         3 Adelphi           
 7         4 Adrian            
 8     11324 Agnes Scott       
 9       721 Air Force         
10         5 Akron             
# ... with 1,325 more rows
…
The highest ranking schools include several of the top D1 programs as well as some smaller schools. We don't have the NCAA division recorded in these data, but can use attendance to pick out the large D1 schools.

In[13]:

top_schools = games %>% mutate(margin = score - opponent_score) %>% group_by(school_id) %>% 
                        summarize(m = sum(attendence)) %>% inner_join(schools) %>% 
                        top_n(300, m) %>% arrange(desc(m)) %>% print

Joining, by = "school_id"

# A tibble: 300 x 3
   school_id        m school_name   
       <int>    <int> <chr>         
 1       334 11177012 Kentucky      
 2       688 10350982 Syracuse      
 3       457  9686651 North Carolina
 4       367  9628657 Louisville    
 5       328  9043852 Kansas        
 6       796  8510709 Wisconsin     
 7       416  8466698 Michigan St.  
 8       518  8278421 Ohio St.      
 9       306  7946485 Indiana       
10       301  7909691 Illinois      
# ... with 290 more rows

In[14]:

games_top300 = games %>% semi_join(top_schools) %>% print

Joining, by = "school_id"

# A tibble: 152,269 x 11
   oppone game_date  score oppon locat neutra game atte oppo  year scho
   <chr>   <date>     <int>  <int> <chr>  <chr>   <chr> <int> <int> <int> <int>
 1 Sul Ro 2001-11-16    93     59 Home   <NA>    <NA>   2041  1390  2002 26172
 2 Texas  2001-11-25    89     99 Home   <NA>    <NA>   1493   670  2002 26172
 3 Loyola 2001-11-29    66     86 Away   <NA>    <NA>   1128   371  2002 26172
 4 Illino 2001-12-01    56     80 Away   <NA>    <NA>  16500   301  2002 26172
 5 Texas   2001-12-05    64     89 Away   <NA>    <NA>   6099   703  2002 26172
 6 UTEP    2001-12-08    56     82 Away   <NA>    <NA>   6203   704  2002 26172
 7 Lamar   2001-12-15    67     69 Home   <NA>    <NA>   1342   346  2002 26172
 8 San Fr 2001-12-18    80     75 Home   <NA>    <NA>   1360   629  2002 26172
 9 Denver  2001-12-21    81     79 Home   <NA>    <NA>   1415   183  2002 26172
10 Waylan 2001-12-28    92     83 Home   <NA>    <NA>   2096    NA  2002 26172
# ... with 152,259 more rows
…
